{
	"__type__": "DlgDialogue",
	"DlgVersion": 5,
	"DlgName": "TestDialogue",
	"DlgGuid": "D3B6003044F0EC3A430C03B963F09C88",
	"StartNode":
	{
		"__type__": "DlgNode_Speech",
		"Text": "",
		"bIsVirtualParent": false,
		"OwnerName": "None",
		"bCheckChildrenOnEvaluation": false,
		"EnterConditions": [],
		"EnterEvents": [],
		"Children": [
			{
				"TargetIndex": 0,
				"Conditions": [],
				"Text": "Next"
			},
			{
				"TargetIndex": 1,
				"Conditions": [],
				"Text": ""
			}
		]
	},
	"Nodes": [
		{
			"__index__": 0,
			"__type__": "DlgNode_Speech",
			"Text": "I can talk!",
			"VoiceSoundWave": "/Game/StarterContent/Audio/Collapse01.Collapse01",
			"bIsVirtualParent": false,
			"OwnerName": "TestOwner",
			"bCheckChildrenOnEvaluation": false,
			"EnterConditions": [
				{
					"Strength": "EDlgConditionStrength::DlgConditionStrengthStrong",
					"ConditionType": "EDlgConditionType::DlgConditionIntCall",
					"ParticipantName": "None",
					"CallbackName": "NodeVariable",
					"Operation": "EDlgOperation::DlgEqual",
					"IntValue": 0,
					"FloatValue": 0,
					"NameValue": "None",
					"bBoolValue": true,
					"bLongTermMemory": true
				}
			],
			"EnterEvents": [
				{
					"ParticipantName": "None",
					"EventType": "EDlgEventType::DlgEventModifyInt",
					"EventName": "NodeVariable",
					"IntValue": 0,
					"FloatValue": 0,
					"NameValue": "None",
					"bDelta": false,
					"bValue": false
				}
			],
			"Children": [
				{
					"TargetIndex": 2,
					"Conditions": [
						{
							"Strength": "EDlgConditionStrength::DlgConditionStrengthStrong",
							"ConditionType": "EDlgConditionType::DlgConditionIntCall",
							"ParticipantName": "None",
							"CallbackName": "EdgeVariable",
							"Operation": "EDlgOperation::DlgEqual",
							"IntValue": 100,
							"FloatValue": 0,
							"NameValue": "None",
							"bBoolValue": true,
							"bLongTermMemory": true
						}
					],
					"Text": "Next"
				}
			]
		},
		{
			"__index__": 1,
			"__type__": "DlgNode_Speech",
			"Text": "Meow. Yeah I can speak too",
			"bIsVirtualParent": false,
			"OwnerName": "Cat",
			"bCheckChildrenOnEvaluation": false,
			"EnterConditions": [],
			"EnterEvents": [],
			"Children": [
				{
					"TargetIndex": 2,
					"Conditions": [],
					"Text": "Next"
				}
			]
		},
		{
			"__index__": 2,
			"__type__": "DlgNode_Speech",
			"Text": "You don't say?",
			"bIsVirtualParent": false,
			"OwnerName": "TestOwner",
			"bCheckChildrenOnEvaluation": false,
			"EnterConditions": [],
			"EnterEvents": [
				{
					"ParticipantName": "None",
					"EventType": "EDlgEventType::DlgEventModifyInt",
					"EventName": "DefaultValue",
					"IntValue": 0,
					"FloatValue": 0,
					"NameValue": "None",
					"bDelta": false,
					"bValue": false
				},
				{
					"ParticipantName": "None",
					"EventType": "EDlgEventType::DlgEventModifyInt",
					"EventName": "Default",
					"IntValue": 0,
					"FloatValue": 0,
					"NameValue": "None",
					"bDelta": false,
					"bValue": false
				}
			],
			"Children": [
				{
					"TargetIndex": 3,
					"Conditions": [],
					"Text": "Finish"
				}
			]
		},
		{
			"__index__": 3,
			"__type__": "DlgNode_End",
			"OwnerName": "TestOwner",
			"bCheckChildrenOnEvaluation": false,
			"EnterConditions": [],
			"EnterEvents": [],
			"Children": []
		}
	]
}